{
  "defaultSeverity": "error",
  "extends": ["tslint:recommended", "tslint-microsoft-contrib"],
  "jsRules": {},
  "plugins": ["react-hooks"],
  "rules": {
    "align": [true, "statements", "members", "elements"],
    "export-name": [
      true,
      {
        "ignore-case": true
      }
    ],
    "linebreak-style": false,
    "max-line-length": [false, 80],
    "no-relative-imports": false,
    "no-any": false,
    "no-submodule-imports": false,
    "typedef": false,
    "import-name": false,
    "possible-timing-attack": false,
    "max-func-body-length": false,
    "max-classes-per-file": false,
    "match-default-export-name": false,
    "no-implicit-dependencies": [
      true,
      "dev",
      ["@", "@public", "@main", "@models", "@renderer", "@utils"]
    ],
    "no-import-side-effect": [
      true,
      {
        "ignore-module": "(\\.css)$"
      }
    ],
    "no-increment-decrement": ["allow-for-loops"],
    "strict-boolean-expressions": false,
    "ordered-imports": false,
    "rulesDirectory": ["node_modules/tslint-microsoft-contrib"],
    "variable-name": false,
    "export-name": false,
    "no-reserved-keywords": false,
    "react-hooks/rules-of-hooks": "error",
    "react-hooks/exhaustive-deps": "warn",
    "no-console": false,
    "completed-docs": false,
    "no-parameter-reassignment": false
  }
}
